{
  "auth": {
    "register": {
      "request": {
        "name": "John Doe",
        "email": "john@example.com",
        "password": "password123",
        "password_confirmation": "password123"
      },
      "success": {
        "user": {
          "id": "550e8400-e29b-41d4-a716-446655440000",
          "name": "John Doe",
          "email": "john@example.com",
          "email_verified_at": null,
          "created_at": "2024-01-01T00:00:00.000000Z",
          "updated_at": "2024-01-01T00:00:00.000000Z"
        },
        "token": "1|abcdefghijklmnopqrstuvwxyz1234567890",
        "token_type": "Bearer"
      },
      "error": {
        "message": "The given data was invalid.",
        "errors": {
          "email": ["The email has already been taken."],
          "password": ["The password confirmation does not match."]
        }
      }
    },
    "login": {
      "request": {
        "email": "john@example.com",
        "password": "password123"
      },
      "success": {
        "user": {
          "id": "550e8400-e29b-41d4-a716-446655440000",
          "name": "John Doe",
          "email": "john@example.com",
          "email_verified_at": null,
          "created_at": "2024-01-01T00:00:00.000000Z",
          "updated_at": "2024-01-01T00:00:00.000000Z"
        },
        "token": "1|abcdefghijklmnopqrstuvwxyz1234567890",
        "token_type": "Bearer"
      },
      "error": {
        "message": "The given data was invalid.",
        "errors": {
          "email": ["The provided credentials are incorrect."]
        }
      }
    }
  },
  "jobs": {
    "list": {
      "data": [
        {
          "id": "550e8400-e29b-41d4-a716-446655440000",
          "company_id": "660e8400-e29b-41d4-a716-446655440001",
          "title": "Senior Frontend Developer",
          "description": "We are looking for an experienced Frontend Developer...",
          "location": "San Francisco, CA",
          "type": "full-time",
          "salary_min": "100000.00",
          "salary_max": "150000.00",
          "salary_currency": "USD",
          "requirements": [
            "5+ years of experience in frontend development",
            "Strong proficiency in React and TypeScript",
            "Experience with Next.js or similar frameworks"
          ],
          "benefits": [
            "Competitive salary and equity",
            "Health, dental, and vision insurance",
            "Flexible working hours",
            "Remote work options"
          ],
          "is_active": true,
          "posted_at": "2024-01-01T00:00:00.000000Z",
          "created_at": "2024-01-01T00:00:00.000000Z",
          "updated_at": "2024-01-01T00:00:00.000000Z",
          "company": {
            "id": "660e8400-e29b-41d4-a716-446655440001",
            "name": "Tech Corp",
            "website": "https://techcorp.com",
            "logo": null,
            "created_at": "2024-01-01T00:00:00.000000Z",
            "updated_at": "2024-01-01T00:00:00.000000Z"
          }
        }
      ],
      "current_page": 1,
      "last_page": 5,
      "per_page": 15,
      "total": 75
    },
    "detail": {
      "id": "550e8400-e29b-41d4-a716-446655440000",
      "company_id": "660e8400-e29b-41d4-a716-446655440001",
      "title": "Senior Frontend Developer",
      "description": "We are looking for an experienced Frontend Developer to join our team. You will be responsible for building user-facing web applications using modern JavaScript frameworks.\n\nYou will work closely with our design and backend teams to create seamless user experiences. The ideal candidate has a strong understanding of React, TypeScript, and modern web development practices.",
      "location": "San Francisco, CA",
      "type": "full-time",
      "salary_min": "100000.00",
      "salary_max": "150000.00",
      "salary_currency": "USD",
      "requirements": [
        "5+ years of experience in frontend development",
        "Strong proficiency in React and TypeScript",
        "Experience with Next.js or similar frameworks",
        "Knowledge of Tailwind CSS or similar CSS frameworks",
        "Understanding of RESTful APIs",
        "Experience with version control (Git)"
      ],
      "benefits": [
        "Competitive salary and equity",
        "Health, dental, and vision insurance",
        "Flexible working hours",
        "Remote work options",
        "Professional development budget",
        "Unlimited PTO"
      ],
      "is_active": true,
      "posted_at": "2024-01-01T00:00:00.000000Z",
      "created_at": "2024-01-01T00:00:00.000000Z",
      "updated_at": "2024-01-01T00:00:00.000000Z",
      "company": {
        "id": "660e8400-e29b-41d4-a716-446655440001",
        "name": "Tech Corp",
        "website": "https://techcorp.com",
        "logo": null,
        "created_at": "2024-01-01T00:00:00.000000Z",
        "updated_at": "2024-01-01T00:00:00.000000Z"
      },
      "ai_job": null
    }
  }
}

